{
	"currencies": [
	  {
		"code": "COP",
		"symbol": "$",
		"precision": 0,
		"roundFactor": 1.0,
		"decimal": ".",
		"separator": ","
	  },
	  {
		"code": "USD",
		"symbol": "$",
		"precision": 2,
		"roundFactor": 0.01,
		"decimal": ".",
		"separator": ","
	  },
	  {
		"code": "AUD",
		"symbol": "$",
		"precision": 2,
		"roundFactor": 0.01,
		"decimal": ".",
		"separator": ","
	  },
	  {
		"code": "CAD",
		"symbol": "$",
		"precision": 2,
		"roundFactor": 0.01,
		"decimal": ".",
		"separator": ","
	  },
	  {
		"code": "CLP",
		"symbol": "$",
		"precision": 0,
		"roundFactor": 1.0,
		"decimal": ",",
		"separator": "."
	  },
	  {
		"code": "CRC",
		"symbol": "¢",
		"precision": 2,
		"roundFactor": 0.01,
		"decimal": ",",
		"separator": " "
	  },
	  {
		"code": "DOP",
		"symbol": "$",
		"precision": 2,
		"roundFactor": 0.01,
		"decimal": ".",
		"separator": ","
	  },
	  {
		"code": "EUR",
		"symbol": "EUR",
		"precision": 2,
		"roundFactor": 0.01,
		"decimal": ",",
		"separator": "."
	  },
	  {
		"code": "GBP",
		"symbol": "£",
		"precision": 2,
		"roundFactor": 0.01,
		"decimal": ".",
		"separator": ","
	  },
	  {
		"code": "GTQ",
		"symbol": "Q.",
		"precision": 0,
		"roundFactor": 1.0,
		"decimal": ".",
		"separator": ","
	  },
	  {
		"code": "ILS",
		"symbol": null,
		"precision": 2,
		"roundFactor": 0.01,
		"decimal": "٫",
		"separator": "٬"
	  },
	  {
		"code": "KRW",
		"symbol": "\\",
		"precision": 0,
		"roundFactor": 1.0,
		"decimal": ".",
		"separator": ","
	  },
	  {
		"code": "MXN",
		"symbol": "$",
		"precision": 2,
		"roundFactor": 0.01,
		"decimal": ".",
		"separator": ","
	  },
	  {
		"code": "NZD",
		"symbol": "$",
		"precision": 2,
		"roundFactor": 0.01,
		"decimal": ".",
		"separator": ","
	  },
	  {
		"code": "PEN",
		"symbol": "S/.",
		"precision": 2,
		"roundFactor": 0.5,
		"decimal": ".",
		"separator": ","
	  },
	  {
		"code": "TWD",
		"symbol": null,
		"precision": 0,
		"roundFactor": 1.0,
		"decimal": ".",
		"separator": ","
	  }
	],
	"mcpEnabled": true
  }